{
    "key": "group_5d4c0b7a03486",
    "title": "Produkt informationer",
    "fields": [
        {
            "key": "field_5d4c0c591ce10",
            "label": "Anvendelse",
            "name": "application",
            "type": "wysiwyg",
            "instructions": "",
            "required": 0,
            "conditional_logic": 0,
            "wrapper": {
                "width": "33.3",
                "class": "",
                "id": ""
            },
            "default_value": "",
            "tabs": "text",
            "media_upload": 0,
            "toolbar": "full",
            "delay": 0
        },
        {
            "key": "field_5d4c0c8a1ce11",
            "label": "Specifikationer",
            "name": "specifications",
            "type": "wysiwyg",
            "instructions": "",
            "required": 0,
            "conditional_logic": 0,
            "wrapper": {
                "width": "33.3",
                "class": "",
                "id": ""
            },
            "default_value": "",
            "tabs": "text",
            "media_upload": 0,
            "toolbar": "full",
            "delay": 0
        },
        {
            "key": "field_5d4c0ca61ce12",
            "label": "Ekstra",
            "name": "extra",
            "type": "wysiwyg",
            "instructions": "",
            "required": 0,
            "conditional_logic": 0,
            "wrapper": {
                "width": "33.3",
                "class": "",
                "id": ""
            },
            "default_value": "",
            "tabs": "text",
            "media_upload": 0,
            "toolbar": "full",
            "delay": 0
        }
    ],
    "location": [
        [
            {
                "param": "post_type",
                "operator": "==",
                "value": "product"
            }
        ]
    ],
    "menu_order": 3,
    "position": "normal",
    "style": "default",
    "label_placement": "top",
    "instruction_placement": "label",
    "hide_on_screen": [
        "the_content"
    ],
    "active": 1,
    "description": "",
    "modified": 1565272911
}